…
data_tidy
```

    ## # A tibble: 320 x 10
    ## # Groups:   subj [80]
    ##    sex   subj   agem experiment cost  hv_side trial  look trial_no
    ##    <fct> <fct> <dbl> <fct>      <fct> <fct>   <chr> <dbl>    <dbl>
    ##  1 m     S1_1   10.5 Exp.1      Barr… left    test1 32.8         1
    ##  2 m     S1_1   10.5 Exp.1      Barr… left    test2  6.38        2
    ##  3 m     S1_1   10.5 Exp.1      Barr… left    test3 14.2         3
    ##  4 m     S1_1   10.5 Exp.1      Barr… left    test4 60           4
    ##  5 f     S1_10   9.9 Exp.1      Barr… left    test1 54.0         1
    ##  6 f     S1_10   9.9 Exp.1      Barr… left    test2 20.8         2
    ##  7 f     S1_10   9.9 Exp.1      Barr… left    test3 11.8         3
    ##  8 f     S1_10   9.9 Exp.1      Barr… left    test4 19.5         4
    ##  9 m     S1_11   9.8 Exp.1      Barr… left    test1 52.5         1
    ## 10 m     S1_11   9.8 Exp.1      Barr… left    test2 18.2         2
    ## # … with 310 more rows, and 1 more variable: trial_type <fct>
…
